{
	"FUN_PAID_RESPECTS": "**{username}** presentaron sus respetos.",
	"FUN_PAID_RESPECTS_FOR": "**{username}** presentaron sus respetos por **{for}**.",
	"FUN_RESPECTS_FOOTER": "{numToday, number} hoy, {numAll, number} todo el tiempo.",
	"FUN_RESPECTS_STATS": "`{numToday, number}` respetos se han pagado hoy, `{numAll, number}` todo el tiempo.",
	"FUN_EMOJIFY_RESULT": "Emojis para `{name}`: {emojified}"
}