{
	"DISCORD_PERMISSION_MANAGE_MESSAGES": "Gerenciar mensagens",
	"ERROR_GENERAL": "Ocorreu um erro. Se precisar de mais ajuda, você pode pedi-la no nosso servidor de assistência (comando `support` para receber o convite).\n```{error}```",
	"FINDER_ERROR": "Não foi possível encontrar o elemento correspondente para `{search}`.",
	"FINDER_ERROR_CHANNEL": "Não foi possível encontrar o canal correspondente para `{search}`.",
	"FINDER_ERROR_MEMBER": "Não foi possível encontrar o membro correspondente para `{search}`.",
	"FINDER_HEADER": "Escolha o elemento que você se refere por `{search}`:",
	"FINDER_HEADER_CHANNEL": "Escolha o canal que você se refere por `{search}`:",
	"FINDER_HEADER_MEMBER": "Escolha o membro que você se refere por `{search}`:",
	"MESSAGEABLE_EMPTY_MESSAGE": "Tentei enviar uma mensagem vazia.",
	"MESSAGEABLE_SEND_FAIL": "Ops! A produção ficou maior que 2000 caracteres. Aqui está um arquivo de texto com o conteúdo:",
	"MESSAGEABLE_UPDATE_FAIL": "Ops! A produção ficou maior que 2000 caracteres.",
	"PAGINATION_ALTERNATIVE_CLOSE": "Digite `x` para fechar a paginação.",
	"PAGINATION_ALTERNATIVE_NAVIGATION": "Digite `<` ou `>` para trocar de página. Digite `p<Número>` para ir a uma página (ex. `p10`).",
	"PAGINATION_NO_ITEMS": "Nada aqui porém só nós galinhas...",
	"PAGINATION_NO_MANAGE_MESSAGES": "Não me parece que tenha a permissão `{permission}` do Discord. Irei apagar automaticamente mensagens de troca-páginas se esta permissão for dada.",
	"PAGINATION_PAGE": "Página {numPage, number}/{numMax, number}",
	"QUESTIONS_CANCEL": "Cancelar",
	"QUESTIONS_CANCELLED": "Pergunta cancelada."
}