{
	"DISCORD_PERMISSION_MANAGE_MESSAGES": "",
	"ERROR_GENERAL": "",
	"FINDER_ERROR": "",
	"FINDER_ERROR_CHANNEL": "",
	"FINDER_ERROR_MEMBER": "",
	"FINDER_HEADER": "",
	"FINDER_HEADER_CHANNEL": "",
	"FINDER_HEADER_MEMBER": "",
	"MESSAGEABLE_EMPTY_MESSAGE": "",
	"MESSAGEABLE_SEND_FAIL": "",
	"MESSAGEABLE_UPDATE_FAIL": "",
	"PAGINATION_ALTERNATIVE_CLOSE": "",
	"PAGINATION_ALTERNATIVE_NAVIGATION": "",
	"PAGINATION_NO_ITEMS": "",
	"PAGINATION_NO_MANAGE_MESSAGES": "",
	"PAGINATION_PAGE": "",
	"QUESTIONS_CANCEL": "",
	"QUESTIONS_CANCELLED": ""
}