{
	"AYANA_VERSION": "Ayana Numba",
	"AYANA_CORE_VERSION": "Ayana Core Numba",
	"INFO_CONTAINER": "Trash bin",
	"INFO_MEMORY": "Currently eating",
	"INFO_SERVER_REGION": "Pub Location",
	"INFO_SERVERS": "Pubs",
	"INFO_SHARD": "Shard",
	"INFO_STREAMS": "Streams",
	"INFO_UPTIME": "Annoying people since",
	"INFO_USERS": "Dickheads",
	"INFO_ID": "Number thingo",
	"INFO_USERNAME": "Dickhead's name",
	"INFO_DISCRIMINATOR": "Smol number thingo",
	"INFO_NICKNAME": "Dickhead identifies as",
	"INFO_STATUS": "Status",
	"INFO_PLAYING": "Doing thingy",
	"INFO_JOINED": "Entered the pub",
	"INFO_CREATED": "Created",
	"INFO_MENTION": "Annoyable",
	"INFO_ROLES": "Cartels",
	"SEKITSUI_CLIENT_ID": "Sekitsui Client ID",
	"SEKITSUI_PING": "Sekitsui Cirkey",
	"SEKITSUI_VERSION": "Sekitsui Numba",
	"HEADER_SELECT_ACTION": "You woke me up, cunt. What do you want?"
}