{
	"AYANA_VERSION": "Ayana版本",
	"AYANA_CORE_VERSION": "Ayana核心版本",
	"INFO_CONTAINER": "容器",
	"INFO_MEMORY": "内存",
	"INFO_SERVER_REGION": "服务器地区",
	"INFO_SERVERS": "服务器",
	"INFO_SHARD": "碎片",
	"INFO_STREAMS": "串流",
	"INFO_UPTIME": "运行时间",
	"INFO_USERS": "用户",
	"INFO_ID": "ID",
	"INFO_USERNAME": "用户名",
	"INFO_DISCRIMINATOR": "标签",
	"INFO_NICKNAME": "昵称",
	"INFO_STATUS": "状态",
	"INFO_PLAYING": "正在玩",
	"INFO_JOINED": "已加入",
	"INFO_CREATED": "已创建",
	"INFO_MENTION": "提及",
	"INFO_ROLES": "身份",
	"SEKITSUI_CLIENT_ID": "Sekitsui 用户ID",
	"SEKITSUI_PING": "Sekitsui Ping 值",
	"SEKITSUI_VERSION": "Sekitsui 版本",
	"HEADER_SELECT_ACTION": "你想做什么？"
}